[gd_scene load_steps=7 format=2]

[ext_resource path="res://dialogue_system.gd" type="Script" id=1]
[ext_resource path="res://fonts/adobe_source_san_pro_ttf/godot_font_format/source_sans_pro_bold_italic_16.tres" type="DynamicFont" id=2]
[ext_resource path="res://fonts/adobe_source_san_pro_ttf/godot_font_format/source_sans_pro_italic_16.tres" type="DynamicFont" id=3]
[ext_resource path="res://fonts/adobe_source_san_pro_ttf/godot_font_format/source_sans_pro_bold_16.tres" type="DynamicFont" id=4]
[ext_resource path="res://fonts/adobe_source_san_pro_ttf/godot_font_format/source_sans_pro_regular_16.tres" type="DynamicFont" id=5]

[sub_resource type="Animation" id=1]

loop = true
tracks/0/type = "value"
tracks/0/path = NodePath("ContinueIndicator:self_modulate")
tracks/0/interp = 1
tracks/0/loop_wrap = true
tracks/0/imported = false
tracks/0/enabled = true
tracks/0/keys = {
"times": PoolRealArray( 0, 0.6 ),
"transitions": PoolRealArray( 1, 1 ),
"update": 0,
"values": [ Color( 1, 1, 1, 1 ), Color( 1, 1, 1, 0 ) ]
}

[node name="Dialogue" type="Control"]
margin_left = 553.0
margin_top = 520.0
margin_right = 553.0
margin_bottom = 520.0
script = ExtResource( 1 )

[node name="AnimationPlayer" type="AnimationPlayer" parent="."]
anims/Continue_Indicator = SubResource( 1 )

[node name="Frame" type="ColorRect" parent="."]
margin_left = -553.0
margin_top = -49.0
margin_right = 467.0
margin_bottom = 76.0
color = Color( 0.175781, 0.175781, 0.175781, 1 )

[node name="RichTextLabel" type="RichTextLabel" parent="Frame"]
anchor_left = 0.5
anchor_top = 0.5
anchor_right = 0.5
anchor_bottom = 0.5
margin_left = -502.0
margin_top = -49.5
margin_right = 501.0
margin_bottom = 50.5
custom_fonts/bold_italics_font = ExtResource( 2 )
custom_fonts/italics_font = ExtResource( 3 )
custom_fonts/bold_font = ExtResource( 4 )
custom_fonts/normal_font = ExtResource( 5 )
bbcode_enabled = true
bbcode_text = "Empty text"
text = "Empty text"
scroll_active = false

[node name="Choices" type="Control" parent="Frame"]

[node name="ContinueIndicator" type="ColorRect" parent="."]
self_modulate = Color( 1, 1, 1, 0.953089 )
margin_left = -47.4994
margin_top = -47.2606
margin_right = -37.4994
margin_bottom = -37.2606

[node name="Timer" type="Timer" parent="."]

