[gd_scene load_steps=6 format=2]

[ext_resource path="res://assets/bg/Scene_Kitchen.png" type="Texture" id=1]
[ext_resource path="res://assets/characters/Dad.png" type="Texture" id=2]
[ext_resource path="res://assets/interactive/Ramps.png" type="Texture" id=3]
[ext_resource path="res://Conversation.tscn" type="PackedScene" id=4]

[sub_resource type="CapsuleShape2D" id=1]

radius = 25.6172
height = 164.703

[node name="Node2D" type="Node2D"]

[node name="TextureRect" type="TextureRect" parent="."]
margin_left = 0.735046
margin_top = -67.6285
margin_right = 1024.74
margin_bottom = 700.372
texture = ExtResource( 1 )

[node name="Dad" type="KinematicBody2D" parent="."]
position = Vector2( 252.436, 336.857 )
scale = Vector2( 1.65538, 1.50159 )

[node name="CollisionShape2D" type="CollisionShape2D" parent="Dad"]
position = Vector2( 2.4164, -0.665955 )
shape = SubResource( 1 )

[node name="Sprite" type="Sprite" parent="Dad/CollisionShape2D"]
position = Vector2( -2.4164, 0.665955 )
texture = ExtResource( 2 )

[node name="Ramps" type="Sprite" parent="."]
position = Vector2( 471.635, 280.097 )
texture = ExtResource( 3 )

[node name="Conversation" parent="." instance=ExtResource( 4 )]

[node name="Main" parent="Conversation" index="2"]
editor/display_folded = false

[node name="InitiateA" parent="Conversation/Main/UI" index="0"]
visible = false
margin_left = 192.0
margin_top = 104.0
margin_right = 311.0
margin_bottom = 473.0

[node name="Continue" parent="Conversation/Main/UI" index="1"]
margin_left = 192.0
margin_top = 100.0
margin_right = 322.0
margin_bottom = 472.0
text = ""
flat = true

[node name="Kitchen" parent="Conversation/Main/UI" index="2"]
margin_left = 182.0
margin_top = 98.0
margin_right = 325.0
margin_bottom = 497.0
flat = true

[node name="KitchenNext" parent="Conversation/Main/UI" index="3"]
margin_left = 181.0
margin_top = 97.0
margin_right = 321.0
margin_bottom = 496.0
flat = true

[node name="Frame" parent="Conversation/Main/Dialogue" index="1"]
margin_left = -1065.0
margin_top = 15.0
margin_right = -41.0
margin_bottom = 180.0

[node name="RichTextLabel" parent="Conversation/Main/Dialogue/Frame" index="0"]
margin_left = -507.0
margin_top = -78.5
margin_right = 505.0
margin_bottom = 78.5


[editable path="Conversation"]

[editable path="Conversation/Main"]

[editable path="Conversation/Main/Dialogue"]
