{
	"first" : {
	"type" : "text",
	"content" : "I decide that sometimes the familiar is best. I’ll conquer the kitchen slowly. Today, I start by making apple pie with my grandma.",
	"next" : "0"
	},
	"0" : {
	"type" : "text",
	"content" : "She hasn’t started doing anything with the apples and is filling up a large bowl with water. I approach the sink and ask a question that I’m sure I will repeat many times over this morning.",
	"next" : "1"
	},
	"1" : {
	"type" : "text",
	"content" : "[color=#5de57b][b]You:[/b] What is that for?",
	"next" : "2"
	},
	"2" : {
	"type" : "text",
	"content" : "Grandma: Once we slice the apples, we’ll put them in here so that they don’t brown too much before they go in the pie.",
	"next" : "3"
	},
	"3" : {
	"type" : "text",
	"content" : "Once the bowl is filled, Grandma takes it to the corner of the counter where she placed the apples, then pulls two cutting boards from the cupboard and hands one to me.",
	"next" : "4"
	},
	"4" : {
	"type" : "text",
	"content" : "[color=#5de57b][b]You:[/b] Huh. Will it take that long to cut them?",
	"next" : "5"
	},
	"5" : {
	"type" : "text",
	"content" : "Grandma: I’m not sure. This is just how your great-grandma always did it, so that’s how I do it.",
	"next" : "6"
	},
	"6" : {
	"type" : "text",
	"content" : "[color=#5de57b][b]You:[/b] I feel like unquestioningly following your parents’ examples isn’t always a great idea.",
	"next" : "7"
	},
	"7" : {
	"type" : "text",
	"content" : "Grandma: Yes, but we don’t always need to mess with what works.",
	"next" : "8"
	},
	"8" : {
	"type" : "text",
	"content" : "[color=#5de57b][b]You:[/b] But then we can’t find out if there’s a better method",
	"next" : "9"
	},
	"9" : {
	"type" : "text",
	"content" : "Would you like to try something else?",
	"next" : "10"
	},
	"10" {
	}
	
}